%YAML 1.1
%TAG !u! tag:unity3d.com,2011:
--- !u!114 &11400000
MonoBehaviour:
  m_ObjectHideFlags: 0
  m_CorrespondingSourceObject: {fileID: 0}
  m_PrefabInstance: {fileID: 0}
  m_PrefabAsset: {fileID: 0}
  m_GameObject: {fileID: 0}
  m_Enabled: 1
  m_EditorHideFlags: 0
  m_Script: {fileID: 11500000, guid: a3d9d57bae6f04a0495008742787b78c, type: 3}
  m_Name: Minotaur
  m_EditorClassIdentifier: 
  heroName: Minotaur
  health: 100
  attPower: 10
  attRate: 2.5
  attRange: 1.5
  speed: 3
