%YAML 1.1
%TAG !u! tag:unity3d.com,2011:
--- !u!74 &7400000
AnimationClip:
  m_ObjectHideFlags: 0
  m_CorrespondingSourceObject: {fileID: 0}
  m_PrefabInstance: {fileID: 0}
  m_PrefabAsset: {fileID: 0}
  m_Name: Idle
  serializedVersion: 6
  m_Legacy: 0
  m_Compressed: 0
  m_UseHighQualityCurve: 1
  m_RotationCurves: []
  m_CompressedRotationCurves: []
  m_EulerCurves: []
  m_PositionCurves: []
  m_ScaleCurves: []
  m_FloatCurves: []
  m_PPtrCurves:
  - curve:
    - time: 0
      value: {fileID: 21300000, guid: 6f08a813cba8e8b41aa59a54e5aeb1af, type: 3}
    - time: 0.083333336
      value: {fileID: 21300000, guid: 8ade39927544e0a49bbae1305205df9e, type: 3}
    - time: 0.16666667
      value: {fileID: 21300000, guid: 688e272311b1bae46941a54f7c4a9be0, type: 3}
    - time: 0.25
      value: {fileID: 21300000, guid: fddbd98027be57a44b02df96254a43e2, type: 3}
    - time: 0.33333334
      value: {fileID: 21300000, guid: a4c54ce82f97d034fb4ab7a4cf7edd31, type: 3}
    - time: 0.41666666
      value: {fileID: 21300000, guid: 424e24a0f673eae4ea17b0cc886e4028, type: 3}
    - time: 0.5
      value: {fileID: 21300000, guid: 00e7c44ac90da374fb33700829f15ca4, type: 3}
    - time: 0.5833333
      value: {fileID: 21300000, guid: 603de499137071c4faf5d45b9cde5d45, type: 3}
    - time: 0.6666667
      value: {fileID: 21300000, guid: 6b33e50572deeba4286e12b0eb7878e7, type: 3}
    - time: 0.75
      value: {fileID: 21300000, guid: ce4a67c074ac4d641a2aec9a7dacc5ff, type: 3}
    - time: 0.8333333
      value: {fileID: 21300000, guid: bec7ff63c9ea281439a7f60f790ce52b, type: 3}
    - time: 0.9166667
      value: {fileID: 21300000, guid: 31324f82680cc244281b0ba3b860ff1f, type: 3}
    attribute: m_Sprite
    path: 
    classID: 212
    script: {fileID: 0}
  m_SampleRate: 12
  m_WrapMode: 0
  m_Bounds:
    m_Center: {x: 0, y: 0, z: 0}
    m_Extent: {x: 0, y: 0, z: 0}
  m_ClipBindingConstant:
    genericBindings:
    - serializedVersion: 2
      path: 0
      attribute: 0
      script: {fileID: 0}
      typeID: 212
      customType: 23
      isPPtrCurve: 1
    pptrCurveMapping:
    - {fileID: 21300000, guid: 6f08a813cba8e8b41aa59a54e5aeb1af, type: 3}
    - {fileID: 21300000, guid: 8ade39927544e0a49bbae1305205df9e, type: 3}
    - {fileID: 21300000, guid: 688e272311b1bae46941a54f7c4a9be0, type: 3}
    - {fileID: 21300000, guid: fddbd98027be57a44b02df96254a43e2, type: 3}
    - {fileID: 21300000, guid: a4c54ce82f97d034fb4ab7a4cf7edd31, type: 3}
    - {fileID: 21300000, guid: 424e24a0f673eae4ea17b0cc886e4028, type: 3}
    - {fileID: 21300000, guid: 00e7c44ac90da374fb33700829f15ca4, type: 3}
    - {fileID: 21300000, guid: 603de499137071c4faf5d45b9cde5d45, type: 3}
    - {fileID: 21300000, guid: 6b33e50572deeba4286e12b0eb7878e7, type: 3}
    - {fileID: 21300000, guid: ce4a67c074ac4d641a2aec9a7dacc5ff, type: 3}
    - {fileID: 21300000, guid: bec7ff63c9ea281439a7f60f790ce52b, type: 3}
    - {fileID: 21300000, guid: 31324f82680cc244281b0ba3b860ff1f, type: 3}
  m_AnimationClipSettings:
    serializedVersion: 2
    m_AdditiveReferencePoseClip: {fileID: 0}
    m_AdditiveReferencePoseTime: 0
    m_StartTime: 0
    m_StopTime: 1
    m_OrientationOffsetY: 0
    m_Level: 0
    m_CycleOffset: 0
    m_HasAdditiveReferencePose: 0
    m_LoopTime: 1
    m_LoopBlend: 0
    m_LoopBlendOrientation: 0
    m_LoopBlendPositionY: 0
    m_LoopBlendPositionXZ: 0
    m_KeepOriginalOrientation: 0
    m_KeepOriginalPositionY: 1
    m_KeepOriginalPositionXZ: 0
    m_HeightFromFeet: 0
    m_Mirror: 0
  m_EditorCurves: []
  m_EulerEditorCurves: []
  m_HasGenericRootTransform: 0
  m_HasMotionFloatCurves: 0
  m_Events: []
